[api-updater (non-obsolete-error-filter)] 21.10.2021 21:27:03 : Starting C:/Program Files/Unity/Hub/Editor/2020.3.14f1/Editor/Data/Tools/ScriptUpdater/APIUpdater.NonObsoleteApiUpdaterDetector.exe
[api-updater (non-obsolete-error-filter)] 
----------------------------------
jit/startup time      : 170,8055ms
moved types parse time: 59ms
candidates parse time : 1ms
C# parse time         : 341ms
candidates check time : 61ms
console write time    : 0ms

[api-updater (non-obsolete-error-filter)] 31.10.2021 14:09:40 : Starting C:/Program Files/Unity/Hub/Editor/2020.3.14f1/Editor/Data/Tools/ScriptUpdater/APIUpdater.NonObsoleteApiUpdaterDetector.exe
[api-updater (non-obsolete-error-filter)] 
----------------------------------
jit/startup time      : 2845,5141ms
moved types parse time: 97ms
candidates parse time : 3ms
C# parse time         : 952ms
candidates check time : 239ms
console write time    : 1ms

[api-updater (non-obsolete-error-filter)] 02.11.2021 2:15:57 : Starting C:/Program Files/Unity/Hub/Editor/2020.3.14f1/Editor/Data/Tools/ScriptUpdater/APIUpdater.NonObsoleteApiUpdaterDetector.exe
[api-updater (non-obsolete-error-filter)] 
----------------------------------
jit/startup time      : 1148,0436ms
moved types parse time: 64ms
candidates parse time : 1ms
C# parse time         : 402ms
candidates check time : 58ms
console write time    : 1ms

[api-updater (non-obsolete-error-filter)] 11.11.2021 21:44:33 : Starting C:/Program Files/Unity/Hub/Editor/2020.3.14f1/Editor/Data/Tools/ScriptUpdater/APIUpdater.NonObsoleteApiUpdaterDetector.exe
[api-updater (non-obsolete-error-filter)] 
----------------------------------
jit/startup time      : 1871,7663ms
moved types parse time: 237ms
candidates parse time : 3ms
C# parse time         : 782ms
candidates check time : 114ms
console write time    : 1ms

[api-updater (non-obsolete-error-filter)] 11.11.2021 21:44:48 : Starting C:/Program Files/Unity/Hub/Editor/2020.3.14f1/Editor/Data/Tools/ScriptUpdater/APIUpdater.NonObsoleteApiUpdaterDetector.exe
[api-updater (non-obsolete-error-filter)] 
----------------------------------
jit/startup time      : 264,6788ms
moved types parse time: 109ms
candidates parse time : 2ms
C# parse time         : 371ms
candidates check time : 240ms
console write time    : 2ms

[api-updater (non-obsolete-error-filter)] 11.11.2021 21:45:12 : Starting C:/Program Files/Unity/Hub/Editor/2020.3.14f1/Editor/Data/Tools/ScriptUpdater/APIUpdater.NonObsoleteApiUpdaterDetector.exe
[api-updater (non-obsolete-error-filter)] 
----------------------------------
jit/startup time      : 285,5872ms
moved types parse time: 122ms
candidates parse time : 3ms
C# parse time         : 379ms
candidates check time : 93ms
console write time    : 1ms

[api-updater (non-obsolete-error-filter)] 11.11.2021 21:45:19 : Starting C:/Program Files/Unity/Hub/Editor/2020.3.14f1/Editor/Data/Tools/ScriptUpdater/APIUpdater.NonObsoleteApiUpdaterDetector.exe
[api-updater (non-obsolete-error-filter)] 
----------------------------------
jit/startup time      : 312,8434ms
moved types parse time: 104ms
candidates parse time : 2ms
C# parse time         : 522ms
candidates check time : 126ms
console write time    : 1ms

